…
``` r
gather_data <- gather(data_raw,key = 'atrribute', value = 'value', 7:10)

gather_data
```

    ## # A tibble: 69,656 x 8
    ##    timestamp             cnt    t1    t2   hum wind_speed atrribute   value
    ##    <dttm>              <dbl> <dbl> <dbl> <dbl>      <dbl> <chr>       <dbl>
    ##  1 2015-01-04 00:00:00   182   3     2    93          6   weather_co~     3
    ##  2 2015-01-04 01:00:00   138   3     2.5  93          5   weather_co~     1
    ##  3 2015-01-04 02:00:00   134   2.5   2.5  96.5        0   weather_co~     1
    ##  4 2015-01-04 03:00:00    72   2     2   100          0   weather_co~     1
    ##  5 2015-01-04 04:00:00    47   2     0    93          6.5 weather_co~     1
    ##  6 2015-01-04 05:00:00    46   2     2    93          4   weather_co~     1
    ##  7 2015-01-04 06:00:00    51   1    -1   100          7   weather_co~     4
    ##  8 2015-01-04 07:00:00    75   1    -1   100          7   weather_co~     4
    ##  9 2015-01-04 08:00:00   131   1.5  -1    96.5        8   weather_co~     4
    ## 10 2015-01-04 09:00:00   301   2    -0.5 100          9   weather_co~     3
    ## # ... with 69,646 more rows
…
We can see that `gather` and `spread` are reverse processes of each
other. When we gather and again spread out the dataset, we get our
original dataset again.

``` r
spread_data <- spread(gather_data,key = 'atrribute', value = 'value')

spread_data
```

    ## # A tibble: 17,414 x 10
    ##    timestamp             cnt    t1    t2   hum wind_speed is_holiday
    ##    <dttm>              <dbl> <dbl> <dbl> <dbl>      <dbl>      <dbl>
    ##  1 2015-01-04 00:00:00   182   3     2    93          6            0
    ##  2 2015-01-04 01:00:00   138   3     2.5  93          5            0
    ##  3 2015-01-04 02:00:00   134   2.5   2.5  96.5        0            0
    ##  4 2015-01-04 03:00:00    72   2     2   100          0            0
    ##  5 2015-01-04 04:00:00    47   2     0    93          6.5          0
    ##  6 2015-01-04 05:00:00    46   2     2    93          4            0
    ##  7 2015-01-04 06:00:00    51   1    -1   100          7            0
    ##  8 2015-01-04 07:00:00    75   1    -1   100          7            0
    ##  9 2015-01-04 08:00:00   131   1.5  -1    96.5        8            0
    ## 10 2015-01-04 09:00:00   301   2    -0.5 100          9            0
    ## # ... with 17,404 more rows, and 3 more variables: is_weekend <dbl>,
    ## #   season <dbl>, weather_code <dbl>
…
dplyr:mutate
------------

`mutate` function adds new variables into the dataframe and presevers
the existing ones. For example, if I want to calculate the Fahrenheit
degrees of ‘t1’ and ‘t2’ and retain ‘t1’ and ‘t2’, I do the following:

``` r
data_f <- mutate(data_raw, f1 = t1*9/5+32, f2 = t2*9/5+32)

data_f
```

    ## # A tibble: 17,414 x 12
    ##    timestamp             cnt    t1    t2   hum wind_speed weather_code
    ##    <dttm>              <dbl> <dbl> <dbl> <dbl>      <dbl>        <dbl>
    ##  1 2015-01-04 00:00:00   182   3     2    93          6              3
    ##  2 2015-01-04 01:00:00   138   3     2.5  93          5              1
    ##  3 2015-01-04 02:00:00   134   2.5   2.5  96.5        0              1
    ##  4 2015-01-04 03:00:00    72   2     2   100          0              1
    ##  5 2015-01-04 04:00:00    47   2     0    93          6.5            1
    ##  6 2015-01-04 05:00:00    46   2     2    93          4              1
    ##  7 2015-01-04 06:00:00    51   1    -1   100          7              4
    ##  8 2015-01-04 07:00:00    75   1    -1   100          7              4
    ##  9 2015-01-04 08:00:00   131   1.5  -1    96.5        8              4
    ## 10 2015-01-04 09:00:00   301   2    -0.5 100          9              3
    ## # ... with 17,404 more rows, and 5 more variables: is_holiday <dbl>,
    ## #   is_weekend <dbl>, season <dbl>, f1 <dbl>, f2 <dbl>

dplyr:select
------------

the `select` function is straightforward, I can select the functions
that I want. If I want to drop columns such as the ‘t1’ and ‘t2’ in the
example above, the `select` function is also handy.

``` r
data_f_selected <- select(data_f, -t1, -t2)

data_f_selected
```

    ## # A tibble: 17,414 x 10
    ##    timestamp             cnt   hum wind_speed weather_code is_holiday
    ##    <dttm>              <dbl> <dbl>      <dbl>        <dbl>      <dbl>
    ##  1 2015-01-04 00:00:00   182  93          6              3          0
    ##  2 2015-01-04 01:00:00   138  93          5              1          0
    ##  3 2015-01-04 02:00:00   134  96.5        0              1          0
    ##  4 2015-01-04 03:00:00    72 100          0              1          0
    ##  5 2015-01-04 04:00:00    47  93          6.5            1          0
    ##  6 2015-01-04 05:00:00    46  93          4              1          0
    ##  7 2015-01-04 06:00:00    51 100          7              4          0
    ##  8 2015-01-04 07:00:00    75 100          7              4          0
    ##  9 2015-01-04 08:00:00   131  96.5        8              4          0
    ## 10 2015-01-04 09:00:00   301 100          9              3          0
    ## # ... with 17,404 more rows, and 4 more variables: is_weekend <dbl>,
    ## #   season <dbl>, f1 <dbl>, f2 <dbl>
stringr::str\_extract
---------------------

`str_extract` is used when I want to get content from a string according
to a comment pattern denoted by regular expression. Regular expression
is out of the scope of this assignment so I won’t go further into
details. In this example I used `str_extract` the first 4 digit combo in
column ‘timestamp’ which is the year.

``` r
data_year <- mutate(data_f, year = str_extract(timestamp, '[0-9]{4}'))
data_year
```

    ## # A tibble: 17,414 x 13
    ##    timestamp             cnt    t1    t2   hum wind_speed weather_code
    ##    <dttm>              <dbl> <dbl> <dbl> <dbl>      <dbl>        <dbl>
    ##  1 2015-01-04 00:00:00   182   3     2    93          6              3
    ##  2 2015-01-04 01:00:00   138   3     2.5  93          5              1
    ##  3 2015-01-04 02:00:00   134   2.5   2.5  96.5        0              1
    ##  4 2015-01-04 03:00:00    72   2     2   100          0              1
    ##  5 2015-01-04 04:00:00    47   2     0    93          6.5            1
    ##  6 2015-01-04 05:00:00    46   2     2    93          4              1
    ##  7 2015-01-04 06:00:00    51   1    -1   100          7              4
    ##  8 2015-01-04 07:00:00    75   1    -1   100          7              4
    ##  9 2015-01-04 08:00:00   131   1.5  -1    96.5        8              4
    ## 10 2015-01-04 09:00:00   301   2    -0.5 100          9              3
    ## # ... with 17,404 more rows, and 6 more variables: is_holiday <dbl>,
    ## #   is_weekend <dbl>, season <dbl>, f1 <dbl>, f2 <dbl>, year <chr>
tidyr::seperate
---------------

Another way to get the year column is to convert the column into ‘Date’
format then use `seperate` function to seperate ‘year’, ‘month’ and
‘date’ into three columns.

``` r
data_year <- mutate(data_f, timestamp = as.Date(timestamp))
data_year <- separate(data_year, timestamp, c('year','month','date'))

data_year
```

    ## # A tibble: 17,414 x 14
    ##    year  month date    cnt    t1    t2   hum wind_speed weather_code
    ##    <chr> <chr> <chr> <dbl> <dbl> <dbl> <dbl>      <dbl>        <dbl>
    ##  1 2015  01    04      182   3     2    93          6              3
    ##  2 2015  01    04      138   3     2.5  93          5              1
    ##  3 2015  01    04      134   2.5   2.5  96.5        0              1
    ##  4 2015  01    04       72   2     2   100          0              1
    ##  5 2015  01    04       47   2     0    93          6.5            1
    ##  6 2015  01    04       46   2     2    93          4              1
    ##  7 2015  01    04       51   1    -1   100          7              4
    ##  8 2015  01    04       75   1    -1   100          7              4
    ##  9 2015  01    04      131   1.5  -1    96.5        8              4
    ## 10 2015  01    04      301   2    -0.5 100          9              3
    ## # ... with 17,404 more rows, and 5 more variables: is_holiday <dbl>,
    ## #   is_weekend <dbl>, season <dbl>, f1 <dbl>, f2 <dbl>

tidyr::unite
------------

The `unite` function is used to comcatnate values of two columns into a
new column. The argument ‘remove’ is to indicate whether to remove the
original columns that to be united.

``` r
data_unite <- unite(data_year,year_month, year,month, sep = '-', remove = FALSE)
data_unite
```

    ## # A tibble: 17,414 x 15
    ##    year_month year  month date    cnt    t1    t2   hum wind_speed
    ##    <chr>      <chr> <chr> <chr> <dbl> <dbl> <dbl> <dbl>      <dbl>
    ##  1 2015-01    2015  01    04      182   3     2    93          6  
    ##  2 2015-01    2015  01    04      138   3     2.5  93          5  
    ##  3 2015-01    2015  01    04      134   2.5   2.5  96.5        0  
    ##  4 2015-01    2015  01    04       72   2     2   100          0  
    ##  5 2015-01    2015  01    04       47   2     0    93          6.5
    ##  6 2015-01    2015  01    04       46   2     2    93          4  
    ##  7 2015-01    2015  01    04       51   1    -1   100          7  
    ##  8 2015-01    2015  01    04       75   1    -1   100          7  
    ##  9 2015-01    2015  01    04      131   1.5  -1    96.5        8  
    ## 10 2015-01    2015  01    04      301   2    -0.5 100          9  
    ## # ... with 17,404 more rows, and 6 more variables: weather_code <dbl>,
    ## #   is_holiday <dbl>, is_weekend <dbl>, season <dbl>, f1 <dbl>, f2 <dbl>
dplyr::group\_by
----------------

The `group_by` function groups the dataframe into groups to allow the
following operations to be performed by group. In this example I group
the data by the column `year_month`, then calculate the mean of each
‘year-month’ group.

``` r
data_group <- group_by(data_unite, year_month)
data_group_mean_cnt <- mutate(data_group, mean_cnt = mean(cnt))
data_group_mean_cnt
```

    ## # A tibble: 17,414 x 16
    ## # Groups:   year_month [25]
    ##    year_month year  month date    cnt    t1    t2   hum wind_speed
    ##    <chr>      <chr> <chr> <chr> <dbl> <dbl> <dbl> <dbl>      <dbl>
    ##  1 2015-01    2015  01    04      182   3     2    93          6  
    ##  2 2015-01    2015  01    04      138   3     2.5  93          5  
    ##  3 2015-01    2015  01    04      134   2.5   2.5  96.5        0  
    ##  4 2015-01    2015  01    04       72   2     2   100          0  
    ##  5 2015-01    2015  01    04       47   2     0    93          6.5
    ##  6 2015-01    2015  01    04       46   2     2    93          4  
    ##  7 2015-01    2015  01    04       51   1    -1   100          7  
    ##  8 2015-01    2015  01    04       75   1    -1   100          7  
    ##  9 2015-01    2015  01    04      131   1.5  -1    96.5        8  
    ## 10 2015-01    2015  01    04      301   2    -0.5 100          9  
    ## # ... with 17,404 more rows, and 7 more variables: weather_code <dbl>,
    ## #   is_holiday <dbl>, is_weekend <dbl>, season <dbl>, f1 <dbl>, f2 <dbl>,
    ## #   mean_cnt <dbl>
…
data
```

    ## # A tibble: 17,414 x 14
    ##    year_month year  month date    cnt   hum wind_speed weather_code
    ##    <chr>      <chr> <chr> <chr> <dbl> <dbl>      <dbl> <chr>       
    ##  1 2015-01    2015  01    04      182  93          6   Broken clou~
    ##  2 2015-01    2015  01    04      138  93          5   Clear       
    ##  3 2015-01    2015  01    04      134  96.5        0   Clear       
    ##  4 2015-01    2015  01    04       72 100          0   Clear       
    ##  5 2015-01    2015  01    04       47  93          6.5 Clear       
    ##  6 2015-01    2015  01    04       46  93          4   Clear       
    ##  7 2015-01    2015  01    04       51 100          7   Cloudy      
    ##  8 2015-01    2015  01    04       75 100          7   Cloudy      
    ##  9 2015-01    2015  01    04      131  96.5        8   Cloudy      
    ## 10 2015-01    2015  01    04      301 100          9   Broken clou~
    ## # ... with 17,404 more rows, and 6 more variables: is_holiday <chr>,
    ## #   is_weekend <chr>, season <chr>, f1 <dbl>, f2 <dbl>, mean_cnt <dbl>
…
