…
``` r
data
```

    ## # A tibble: 257,741 x 8
    ##    `Port Name` State  `Port Code` Border   Date  Measure   Value Location  
    ##    <chr>       <chr>        <dbl> <chr>    <chr> <chr>     <dbl> <chr>     
    ##  1 Alcan       Alaska        3104 US-Cana~ 3/1/~ Truck Co~   392 POINT (-1~
    ##  2 Alcan       Alaska        3104 US-Cana~ 3/1/~ Truck Co~   162 POINT (-1~
    ##  3 Alcan       Alaska        3104 US-Cana~ 3/1/~ Personal~  3399 POINT (-1~
    ##  4 Alcan       Alaska        3104 US-Cana~ 3/1/~ Trucks      553 POINT (-1~
    ##  5 Alcan       Alaska        3104 US-Cana~ 3/1/~ Personal~  1481 POINT (-1~
    ##  6 Alcan       Alaska        3104 US-Cana~ 2/1/~ Pedestri~    42 POINT (-1~
    ##  7 Alcan       Alaska        3104 US-Cana~ 2/1/~ Personal~   827 POINT (-1~
    ##  8 Alcan       Alaska        3104 US-Cana~ 2/1/~ Trucks      397 POINT (-1~
    ##  9 Alcan       Alaska        3104 US-Cana~ 2/1/~ Truck Co~   315 POINT (-1~
    ## 10 Alcan       Alaska        3104 US-Cana~ 2/1/~ Truck Co~    85 POINT (-1~
    ## # ... with 257,731 more rows
…
``` r
data_mod <- data
data_mod$Date <- data_mod$Date %>% as.Date('%m/%d/%Y')
data_mod
```

    ## # A tibble: 257,741 x 8
    ##    `Port Name` State  `Port Code` Border  Date       Measure Value Location
    ##    <chr>       <chr>        <dbl> <chr>   <date>     <chr>   <dbl> <chr>   
    ##  1 Alcan       Alaska        3104 US-Can~ 2019-03-01 Truck ~   392 POINT (~
    ##  2 Alcan       Alaska        3104 US-Can~ 2019-03-01 Truck ~   162 POINT (~
    ##  3 Alcan       Alaska        3104 US-Can~ 2019-03-01 Person~  3399 POINT (~
    ##  4 Alcan       Alaska        3104 US-Can~ 2019-03-01 Trucks    553 POINT (~
    ##  5 Alcan       Alaska        3104 US-Can~ 2019-03-01 Person~  1481 POINT (~
    ##  6 Alcan       Alaska        3104 US-Can~ 2019-02-01 Pedest~    42 POINT (~
    ##  7 Alcan       Alaska        3104 US-Can~ 2019-02-01 Person~   827 POINT (~
    ##  8 Alcan       Alaska        3104 US-Can~ 2019-02-01 Trucks    397 POINT (~
    ##  9 Alcan       Alaska        3104 US-Can~ 2019-02-01 Truck ~   315 POINT (~
    ## 10 Alcan       Alaska        3104 US-Can~ 2019-02-01 Truck ~    85 POINT (~
    ## # ... with 257,731 more rows
dplyr–mutate
============

the `mutate` function from `dplyr` (a sub-package in `tidyverse`), adds
new variables and preserves existing ones. Here I will use `mutate` as
well as the `%>%` to demostrate the operation above again.

``` r
data_mod2 <- data %>%
  mutate(Date = as.Date(Date, '%m/%d/%Y'))

data_mod2
```

    ## # A tibble: 257,741 x 8
    ##    `Port Name` State  `Port Code` Border  Date       Measure Value Location
    ##    <chr>       <chr>        <dbl> <chr>   <date>     <chr>   <dbl> <chr>   
    ##  1 Alcan       Alaska        3104 US-Can~ 2019-03-01 Truck ~   392 POINT (~
    ##  2 Alcan       Alaska        3104 US-Can~ 2019-03-01 Truck ~   162 POINT (~
    ##  3 Alcan       Alaska        3104 US-Can~ 2019-03-01 Person~  3399 POINT (~
    ##  4 Alcan       Alaska        3104 US-Can~ 2019-03-01 Trucks    553 POINT (~
    ##  5 Alcan       Alaska        3104 US-Can~ 2019-03-01 Person~  1481 POINT (~
    ##  6 Alcan       Alaska        3104 US-Can~ 2019-02-01 Pedest~    42 POINT (~
    ##  7 Alcan       Alaska        3104 US-Can~ 2019-02-01 Person~   827 POINT (~
    ##  8 Alcan       Alaska        3104 US-Can~ 2019-02-01 Trucks    397 POINT (~
    ##  9 Alcan       Alaska        3104 US-Can~ 2019-02-01 Truck ~   315 POINT (~
    ## 10 Alcan       Alaska        3104 US-Can~ 2019-02-01 Truck ~    85 POINT (~
    ## # ... with 257,731 more rows
…
the `str_replace` function from `stringr` (a sub-package in
`tidyverse`), replace content in a string with a defined common pattern
by another content. In this example I will use backreferences in regular
expressions to retain only the numerical parts in column `Location`.

``` r
data_mod3 <- data_mod2 %>%
  mutate(Location = str_replace(Location, '.+\\((.+)\\).*', '\\1'))

data_mod3
```

    ## # A tibble: 257,741 x 8
    ##    `Port Name` State  `Port Code` Border  Date       Measure Value Location
    ##    <chr>       <chr>        <dbl> <chr>   <date>     <chr>   <dbl> <chr>   
    ##  1 Alcan       Alaska        3104 US-Can~ 2019-03-01 Truck ~   392 -142.98~
    ##  2 Alcan       Alaska        3104 US-Can~ 2019-03-01 Truck ~   162 -142.98~
    ##  3 Alcan       Alaska        3104 US-Can~ 2019-03-01 Person~  3399 -142.98~
    ##  4 Alcan       Alaska        3104 US-Can~ 2019-03-01 Trucks    553 -142.98~
    ##  5 Alcan       Alaska        3104 US-Can~ 2019-03-01 Person~  1481 -142.98~
    ##  6 Alcan       Alaska        3104 US-Can~ 2019-02-01 Pedest~    42 -142.98~
    ##  7 Alcan       Alaska        3104 US-Can~ 2019-02-01 Person~   827 -142.98~
    ##  8 Alcan       Alaska        3104 US-Can~ 2019-02-01 Trucks    397 -142.98~
    ##  9 Alcan       Alaska        3104 US-Can~ 2019-02-01 Truck ~   315 -142.98~
    ## 10 Alcan       Alaska        3104 US-Can~ 2019-02-01 Truck ~    85 -142.98~
    ## # ... with 257,731 more rows
…
the `separate` function from `tidyr` (a sub-package in `tidyverse`),
splites one column into multiple columns by defined delimiter. In this
example, I will demostrator this function by spliting the `Date` column
into `Year`, `Month` and `Date` 3 columns, as well as spliting
`Location` column into `Latitude` and `Longitude` 2 columns.

``` r
data_mod4 <- data_mod3 %>%
  separate(Date,c('Year','Month','Date')) %>%
  separate(Location, c('Latitute','Longitude'), sep = ' ')

data_mod4
```

    ## # A tibble: 257,741 x 11
    ##    `Port Name` State `Port Code` Border Year  Month Date  Measure Value
    ##    <chr>       <chr>       <dbl> <chr>  <chr> <chr> <chr> <chr>   <dbl>
    ##  1 Alcan       Alas~        3104 US-Ca~ 2019  03    01    Truck ~   392
    ##  2 Alcan       Alas~        3104 US-Ca~ 2019  03    01    Truck ~   162
    ##  3 Alcan       Alas~        3104 US-Ca~ 2019  03    01    Person~  3399
    ##  4 Alcan       Alas~        3104 US-Ca~ 2019  03    01    Trucks    553
    ##  5 Alcan       Alas~        3104 US-Ca~ 2019  03    01    Person~  1481
    ##  6 Alcan       Alas~        3104 US-Ca~ 2019  02    01    Pedest~    42
    ##  7 Alcan       Alas~        3104 US-Ca~ 2019  02    01    Person~   827
    ##  8 Alcan       Alas~        3104 US-Ca~ 2019  02    01    Trucks    397
    ##  9 Alcan       Alas~        3104 US-Ca~ 2019  02    01    Truck ~   315
    ## 10 Alcan       Alas~        3104 US-Ca~ 2019  02    01    Truck ~    85
    ## # ... with 257,731 more rows, and 2 more variables: Latitute <chr>,
    ## #   Longitude <chr>
…
the `select` function from `dplyr` keeps only the variables that are
mention, or use minus sign ‘-’ to drop the variables that are mentioned.
In this example I will drop the `Port Code` column which contains
duplicate information compared to `Port Name` column.

``` r
data_mod5 <-data_mod4 %>%
  select(-`Port Code`)

data_mod5
```

    ## # A tibble: 257,741 x 10
    ##    `Port Name` State Border Year  Month Date  Measure Value Latitute
    ##    <chr>       <chr> <chr>  <chr> <chr> <chr> <chr>   <dbl> <chr>   
    ##  1 Alcan       Alas~ US-Ca~ 2019  03    01    Truck ~   392 -142.98~
    ##  2 Alcan       Alas~ US-Ca~ 2019  03    01    Truck ~   162 -142.98~
    ##  3 Alcan       Alas~ US-Ca~ 2019  03    01    Person~  3399 -142.98~
    ##  4 Alcan       Alas~ US-Ca~ 2019  03    01    Trucks    553 -142.98~
    ##  5 Alcan       Alas~ US-Ca~ 2019  03    01    Person~  1481 -142.98~
    ##  6 Alcan       Alas~ US-Ca~ 2019  02    01    Pedest~    42 -142.98~
    ##  7 Alcan       Alas~ US-Ca~ 2019  02    01    Person~   827 -142.98~
    ##  8 Alcan       Alas~ US-Ca~ 2019  02    01    Trucks    397 -142.98~
    ##  9 Alcan       Alas~ US-Ca~ 2019  02    01    Truck ~   315 -142.98~
    ## 10 Alcan       Alas~ US-Ca~ 2019  02    01    Truck ~    85 -142.98~
    ## # ... with 257,731 more rows, and 1 more variable: Longitude <chr>

dplyr–filter
============

the `filter` function from `dplyr` choose rows/cases where conditions
are true. In this example I will filter cases in year 2019 only.

``` r
data_mod6 <- data_mod5 %>%
  filter(Year == 2019)

data_mod6
```

    ## # A tibble: 2,364 x 10
    ##    `Port Name` State Border Year  Month Date  Measure Value Latitute
    ##    <chr>       <chr> <chr>  <chr> <chr> <chr> <chr>   <dbl> <chr>   
    ##  1 Alcan       Alas~ US-Ca~ 2019  03    01    Truck ~   392 -142.98~
    ##  2 Alcan       Alas~ US-Ca~ 2019  03    01    Truck ~   162 -142.98~
    ##  3 Alcan       Alas~ US-Ca~ 2019  03    01    Person~  3399 -142.98~
    ##  4 Alcan       Alas~ US-Ca~ 2019  03    01    Trucks    553 -142.98~
    ##  5 Alcan       Alas~ US-Ca~ 2019  03    01    Person~  1481 -142.98~
    ##  6 Alcan       Alas~ US-Ca~ 2019  02    01    Pedest~    42 -142.98~
    ##  7 Alcan       Alas~ US-Ca~ 2019  02    01    Person~   827 -142.98~
    ##  8 Alcan       Alas~ US-Ca~ 2019  02    01    Trucks    397 -142.98~
    ##  9 Alcan       Alas~ US-Ca~ 2019  02    01    Truck ~   315 -142.98~
    ## 10 Alcan       Alas~ US-Ca~ 2019  02    01    Truck ~    85 -142.98~
    ## # ... with 2,354 more rows, and 1 more variable: Longitude <chr>
…
