…
**mutate（）：Add new variables and preserves existing; transmute drops
existing variables.**

``` r
Students2<-Students%>%
 
  group_by(Parent_Eduction)%>%
  mutate(mean=mean(Score))%>%
  arrange(mean)
  Students2
```

    ## # A tibble: 3,000 x 8
    ## # Groups:   Parent_Eduction [6]
    ##    Gender Race   Parent_Eduction Lunch Test_preparatio~ Subject Score  mean
    ##    <fct>  <fct>  <fct>           <fct> <fct>            <chr>   <int> <dbl>
    ##  1 male   group~ high school     free~ completed        math       64  63.1
    ##  2 female group~ high school     free~ none             math       38  63.1
    ##  3 female group~ high school     stan~ none             math       65  63.1
    ##  4 male   group~ high school     stan~ none             math       88  63.1
    ##  5 male   group~ high school     stan~ none             math       66  63.1
    ##  6 male   group~ high school     stan~ none             math       70  63.1
    ##  7 female group~ high school     stan~ none             math       66  63.1
    ##  8 male   group~ high school     stan~ completed        math       82  63.1
    ##  9 male   group~ high school     stan~ none             math       88  63.1
    ## 10 female group~ high school     free~ none             math       33  63.1
    ## # ... with 2,990 more rows
…
gitHub:
<a href="https://github.com/acatlin/FALL2019TIDYVERSE/blob/master/Data%20607%20TidyVerse%20Assignment%20Part%201.Rmd" class="uri">https://github.com/acatlin/FALL2019TIDYVERSE/blob/master/Data%20607%20TidyVerse%20Assignment%20Part%201.Rmd</a>

Load data
---------

Load data from gitHub.

``` r
dat <- as_tibble(read.csv('https://raw.githubusercontent.com/amberferger/DATA607_Masculinity/master/raw-responses.csv'))
dat
```

    ## # A tibble: 1,615 x 98
    ##        X StartDate EndDate q0001 q0002 q0004_0001 q0004_0002 q0004_0003
    ##    <int> <fct>     <fct>   <fct> <fct> <fct>      <fct>      <fct>     
    ##  1     1 5/10/18 ~ 5/10/1~ Some~ Some~ Not selec~ Not selec~ Not selec~
    ##  2     2 5/10/18 ~ 5/10/1~ Some~ Some~ Father or~ Not selec~ Not selec~
    ##  3     3 5/10/18 ~ 5/10/1~ Very~ Not ~ Father or~ Not selec~ Not selec~
    ##  4     4 5/10/18 ~ 5/10/1~ Very~ Not ~ Father or~ Mother or~ Other fam~
    ##  5     5 5/10/18 ~ 5/10/1~ Very~ Very~ Not selec~ Not selec~ Other fam~
    ##  6     6 5/10/18 ~ 5/10/1~ Very~ Some~ Father or~ Not selec~ Not selec~
    ##  7     7 5/10/18 ~ 5/10/1~ Some~ Not ~ Father or~ Mother or~ Other fam~
    ##  8     8 5/10/18 ~ 5/10/1~ Some~ Some~ Father or~ Not selec~ Not selec~
    ##  9     9 5/10/18 ~ 5/10/1~ Very~ Not ~ Father or~ Not selec~ Not selec~
    ## 10    10 5/11/18 ~ 5/11/1~ Some~ Some~ Father or~ Not selec~ Not selec~
    ## # ... with 1,605 more rows, and 90 more variables: q0004_0004 <fct>,
    ## #   q0004_0005 <fct>, q0004_0006 <fct>, q0005 <fct>, q0007_0001 <fct>,
    ## #   q0007_0002 <fct>, q0007_0003 <fct>, q0007_0004 <fct>,
    ## #   q0007_0005 <fct>, q0007_0006 <fct>, q0007_0007 <fct>,
    ## #   q0007_0008 <fct>, q0007_0009 <fct>, q0007_0010 <fct>,
    ## #   q0007_0011 <fct>, q0008_0001 <fct>, q0008_0002 <fct>,
    ## #   q0008_0003 <fct>, q0008_0004 <fct>, q0008_0005 <fct>,
    ## #   q0008_0006 <fct>, q0008_0007 <fct>, q0008_0008 <fct>,
    ## #   q0008_0009 <fct>, q0008_0010 <fct>, q0008_0011 <fct>,
…
Data Wrangling
--------------

Select the data we need and rename the column.

``` r
dat2<-dat%>%
  select(q0018,q0030,q0034,race2,educ3)

name<-c("Pay_On_A_Date","State","Salary","Race","Education")
colnames(dat2)<-name
dat2
```

    ## # A tibble: 1,615 x 5
    ##    Pay_On_A_Date State      Salary            Race      Education      
    ##    <fct>         <fct>      <fct>             <fct>     <fct>          
    ##  1 Sometimes     New York   $0-$9,999         Non-white College or more
    ##  2 Rarely        Ohio       $50,000-$74,999   White     Some college   
    ##  3 Sometimes     Michigan   $50,000-$74,999   White     College or more
    ##  4 Always        Indiana    $50,000-$74,999   White     Some college   
    ##  5 Always        Ohio       $50,000-$74,999   White     College or more
    ##  6 Always        Indiana    $200,000+         White     College or more
    ##  7 Sometimes     Hawaii     $25,000-$49,999   Non-white College or more
    ##  8 Often         New York   $150,000-$174,999 White     College or more
    ##  9 Always        California $100,000-$124,999 Non-white Some college   
    ## 10 Always        Oregon     $150,000-$174,999 White     College or more
    ## # ... with 1,605 more rows
…
