…
stringr::str\_extract
---------------------

`str_extract` is used when I want to get content from a string according
to a comment pattern denoted by regular expression. Regular expression
is out of the scope of this assignment so I won’t go further into
details. In this example I used `str_extract` the first 4 digit combo in
column ‘date’ which is the year.

``` r
date_year <- mutate(merged, year = str_extract(date, '[0-9]{4}'))
date_year
```

    ## # A tibble: 646 x 9
    ##    match date       league_id league.x   name    rank prev_rank   spi year 
    ##    <int> <date>         <dbl> <chr>      <chr>  <dbl>     <dbl> <dbl> <chr>
    ##  1 26558 2019-11-01      1979 Chinese S~ Guizh~   486       488  26.8 2019 
    ##  2 26558 2019-11-01      1979 Chinese S~ Guang~   392       388  33.7 2019 
    ##  3 26559 2019-11-01      1948 Australia~ Sydne~   285       281  41.9 2019 
    ##  4 26559 2019-11-01      1948 Australia~ Newca~   470       464  28.5 2019 
    ##  5 26560 2019-11-01      1947 Japanese ~ Kashi~   220       202  47.4 2019 
    ##  6 26560 2019-11-01      1947 Japanese ~ Urawa~   469       476  28.6 2019 
    ##  7 26561 2019-11-01      1871 Spanish S~ Numan~   424       401  31.3 2019 
    ##  8 26561 2019-11-01      1871 Spanish S~ Albac~   440       429  30.2 2019 
    ##  9 26562 2019-11-01      1871 Spanish S~ Cadiz    268       257  43.2 2019 
    ## 10 26562 2019-11-01      1871 Spanish S~ Sport~   401       398  33.2 2019 
    ## # ... with 636 more rows
tidyr::seperate
---------------

Another way to get the year column is to convert the column into ‘Date’
format then use `seperate` function to seperate ‘year’, ‘month’ and
‘date’ into three columns.

``` r
date_year <- mutate(merged, date = as.Date(date))
date_year <- separate(date_year, date, c('year','month','date'))

date_year
```

    ## # A tibble: 646 x 10
    ##    match year  month date  league_id league.x   name   rank prev_rank   spi
    ##    <int> <chr> <chr> <chr>     <dbl> <chr>      <chr> <dbl>     <dbl> <dbl>
    ##  1 26558 2019  11    01         1979 Chinese S~ Guiz~   486       488  26.8
    ##  2 26558 2019  11    01         1979 Chinese S~ Guan~   392       388  33.7
    ##  3 26559 2019  11    01         1948 Australia~ Sydn~   285       281  41.9
    ##  4 26559 2019  11    01         1948 Australia~ Newc~   470       464  28.5
    ##  5 26560 2019  11    01         1947 Japanese ~ Kash~   220       202  47.4
    ##  6 26560 2019  11    01         1947 Japanese ~ Uraw~   469       476  28.6
    ##  7 26561 2019  11    01         1871 Spanish S~ Numa~   424       401  31.3
    ##  8 26561 2019  11    01         1871 Spanish S~ Alba~   440       429  30.2
    ##  9 26562 2019  11    01         1871 Spanish S~ Cadiz   268       257  43.2
    ## 10 26562 2019  11    01         1871 Spanish S~ Spor~   401       398  33.2
    ## # ... with 636 more rows

tidyr::unite
------------

The `unite` function is used to comcatnate values of two columns into a
new column. The argument ‘remove’ is to indicate whether to remove the
original columns that to be united.

``` r
date_unite <- unite(date_year, year_month, year, month, sep = '-', remove = TRUE)
date_unite
```

    ## # A tibble: 646 x 9
    ##    match year_month date  league_id league.x   name    rank prev_rank   spi
    ##    <int> <chr>      <chr>     <dbl> <chr>      <chr>  <dbl>     <dbl> <dbl>
    ##  1 26558 2019-11    01         1979 Chinese S~ Guizh~   486       488  26.8
    ##  2 26558 2019-11    01         1979 Chinese S~ Guang~   392       388  33.7
    ##  3 26559 2019-11    01         1948 Australia~ Sydne~   285       281  41.9
    ##  4 26559 2019-11    01         1948 Australia~ Newca~   470       464  28.5
    ##  5 26560 2019-11    01         1947 Japanese ~ Kashi~   220       202  47.4
    ##  6 26560 2019-11    01         1947 Japanese ~ Urawa~   469       476  28.6
    ##  7 26561 2019-11    01         1871 Spanish S~ Numan~   424       401  31.3
    ##  8 26561 2019-11    01         1871 Spanish S~ Albac~   440       429  30.2
    ##  9 26562 2019-11    01         1871 Spanish S~ Cadiz    268       257  43.2
    ## 10 26562 2019-11    01         1871 Spanish S~ Sport~   401       398  33.2
    ## # ... with 636 more rows
…
The `group_by` function groups the dataframe into groups to allow the
following operations to be performed by group. Here, I use `group_by` to
group the data by the column `league` and `team_name`, then use `tally`
to take a look at how many times each team shows up.

``` r
group <- group_by(date_unite, league.x, name)
group <- tally(group)
group <- arrange(group, n)
group
```

    ## # A tibble: 619 x 3
    ## # Groups:   league.x [34]
    ##    league.x                   name                                    n
    ##    <chr>                      <chr>                               <int>
    ##  1 Argentina Primera Division Aldosivi                                1
    ##  2 Argentina Primera Division Argentinos Juniors                      1
    ##  3 Argentina Primera Division Arsenal Sarandi                         1
    ##  4 Argentina Primera Division Atlético Tucumán                        1
    ##  5 Argentina Primera Division Banfield                                1
    ##  6 Argentina Primera Division Boca Juniors                            1
    ##  7 Argentina Primera Division CA Independiente                        1
    ##  8 Argentina Primera Division Central Córdoba Santiago del Estero     1
    ##  9 Argentina Primera Division Colon Santa Fe                          1
    ## 10 Argentina Primera Division Defensa y Justicia                      1
    ## # ... with 609 more rows
…
  
overall
```

    ## # A tibble: 283 x 7
    ##    match  year month_date league_id league.x                 name       SPI
    ##    <int> <dbl> <chr>          <dbl> <chr>                    <chr>    <dbl>
    ##  1    17  2016 08-14           2411 Barclays Premier League  Arsenal   82.6
    ##  2    33  2016 08-20           1869 Spanish Primera Division Barcelo~  96.4
    ##  3   121  2016 09-10           2411 Barclays Premier League  Arsenal   81.7
    ##  4   131  2016 09-10           2411 Barclays Premier League  Liverpo~  78.4
    ##  5   138  2016 09-10           1869 Spanish Primera Division Barcelo~  96.6
    ##  6   161  2016 09-13           1818 UEFA Champions League    Barcelo~  95.9
    ##  7   258  2016 09-21           1869 Spanish Primera Division Barcelo~  96.5
    ##  8   277  2016 09-24           2411 Barclays Premier League  Liverpo~  79.9
    ##  9   281  2016 09-24           2411 Barclays Premier League  Arsenal   83.2
    ## 10   322  2016 09-28           1818 UEFA Champions League    Arsenal   84.3
    ## # ... with 273 more rows
…
