DATA 607 - TidyVerse Vignette (tidyr)
…
Most of the time, data and information is not presented in a very easy-to-use format. As data scientists, a key part of our role is to manipulate data into formats that are simpler to understand and to use. Without clean and tidy data, it’s difficult to run analyses and visualize important points in order to draw valuable conclusions. Additionally, the data-tidying process is never static, as new questions arise and/or new data is collected, data need to be cleaned further.

The tidyr package is a great tool to utilize for these circumstances.

With built-in functions such as spread(), gather(), separate(), separate_rows(), unite(), drop_na(), fill(), replace_na(), complete() and expand(), we can tidy data in many different ways.

Reshaping Data

Often times, you’ll need to change the layout of values in a table. Whether you are going from a wide dataset to long dataset, or vice versa, the gather() and spread() functions are very valuable for this process.

Gather

This function takes the values from the column names, turns them into a “key” column and gathers the values into a single value column:

## # A tibble: 534 x 4
##    date       team  pre_post  elo_ratings
##    <chr>      <chr> <chr>           <dbl>
##  1 10/13/2019 ARI   elo1_pre        1355.
##  2 10/13/2019 ARI   elo1_post       1363.
##  3 10/31/2019 ARI   elo1_pre        1382.
##  4 10/31/2019 ARI   elo1_post       1375.
##  5 12/1/2019  ARI   elo1_pre        1360.
##  6 12/1/2019  ARI   elo1_post         NA 
##  7 12/15/2019 ARI   elo1_pre        1360.
##  8 12/15/2019 ARI   elo1_post         NA 
##  9 12/8/2019  ARI   elo1_pre        1360.
## 10 12/8/2019  ARI   elo1_post         NA 
## # ... with 524 more rows
